…
``` r
states <- ussf::boundaries(geography = "state")

states %>% 
  select(GEOID, NAME, geometry)
#> Simple feature collection with 51 features and 2 fields
#> geometry type:  MULTIPOLYGON
#> dimension:      XY
#> bbox:           xmin: -2358696 ymin: -1338125 xmax: 2258154 ymax: 1558935
#> epsg (SRID):    NA
#> proj4string:    +proj=aea +lat_1=29.5 +lat_2=45.5 +lat_0=37.5 +lon_0=-96 +x_0=0 +y_0=0 +datum=WGS84 +units=m +no_defs
#> # A tibble: 51 x 3
#>    GEOID NAME                                                           geometry
#>    <chr> <chr>                                                <MULTIPOLYGON [m]>
#>  1 24    Maryland   (((1722285 240378.6, 1725330 242308.6, 1728392 239316.5, 17…
#>  2 19    Iowa       (((-50588.83 591418, -46981.68 596802.6, -43690.9 602462.9,…
#>  3 10    Delaware   (((1705278 431220.8, 1706137 435509.7, 1708323 439919.9, 17…
#>  4 39    Ohio       (((1081987 544758, 1084616 548413.9, 1088580 545713.1, 1088…
#>  5 42    Pennsylva… (((1287712 486864, 1286266 495787.9, 1283800 511007.6, 1283…
#>  6 31    Nebraska   (((-670097.4 433429.4, -668488.7 451690.8, -667385.4 464518…
#>  7 53    Washington (((-2000238 1535265, -1987818 1533508, -1983536 1534701, -1…
#>  8 01    Alabama    (((708460.5 -598742.7, 708114 -594376.4, 708487.4 -580948.4…
#>  9 05    Arkansas   (((122656.3 -111221.4, 145436.8 -110838.5, 170649.1 -110435…
#> 10 35    New Mexico (((-1226428 -553334.3, -1221959 -521613.4, -1216674 -483827…
#> # … with 41 more rows
```
…
## Choropleths

Say we want to visualize population density across California counties.
`population` contains population data for California counties.

``` r
population
#> # A tibble: 58 x 3
#>     fips name                            population
#>    <int> <chr>                                <dbl>
#>  1  6001 Alameda County, California         1666753
#>  2  6003 Alpine County, California             1101
#>  3  6005 Amador County, California            39383
#>  4  6007 Butte County, California            231256
#>  5  6009 Calaveras County, California         45602
#>  6  6011 Colusa County, California            21627
#>  7  6013 Contra Costa County, California    1150215
#>  8  6015 Del Norte County, California         27828
#>  9  6017 El Dorado County, California        190678
#> 10  6019 Fresno County, California           994400
#> # … with 48 more rows
```
…
counties
#> Simple feature collection with 58 features and 4 fields
#> geometry type:  MULTIPOLYGON
#> dimension:      XY
#> bbox:           xmin: -2356114 ymin: -364429 xmax: -1646660 ymax: 845925.2
#> epsg (SRID):    NA
#> proj4string:    +proj=aea +lat_1=29.5 +lat_2=45.5 +lat_0=37.5 +lon_0=-96 +x_0=0 +y_0=0 +datum=WGS84 +units=m +no_defs
#> # A tibble: 58 x 5
#>     fips name         population area_land                              geometry
#>    <int> <chr>             <dbl>     <dbl>                    <MULTIPOLYGON [m]>
#>  1  6003 Alpine Coun…       1101   1.91e 9 (((-2057214 375142, -2051788 396071.…
#>  2  6109 Tuolumne Co…      54539   5.75e 9 (((-2125130 314568.9, -2124226 31509…
#>  3  6103 Tehama Coun…      63916   7.64e 9 (((-2250026 634688.8, -2249133 63486…
#>  4  6105 Trinity Cou…      12535   8.23e 9 (((-2274422 717323.6, -2273844 71694…
#>  5  6069 San Benito …      61537   3.60e 9 (((-2236619 235704.6, -2234853 23727…
#>  6  6091 Sierra Coun…       2987   2.47e 9 (((-2109526 508054.3, -2108303 50907…
#>  7  6017 El Dorado C…     190678   4.42e 9 (((-2139971 420499.5, -2135199 42774…
#>  8  6053 Monterey Co…     435594   8.50e 9 (((-2274558 209809.8, -2273793 20985…
#>  9  6057 Nevada Coun…      99696   2.48e 9 (((-2136749 479845.6, -2134308 48218…
#> 10  6071 San Bernard…    2171603   5.20e10 (((-1979985 -163331, -1978420 -16371…
#> # … with 48 more rows
```
…
